<svg width="285" height="284" viewBox="0 0 285 284" fill="none" xmlns="http://www.w3.org/2000/svg">
<ellipse cx="142" cy="141.5" rx="115" ry="110.5" fill="white"/>
<path d="M127.54 0.683919C154.31 -1.88608 181.9 2.75391 205.85 15.1639C218.38 21.2839 229.73 29.5839 239.96 39.0239C263.05 61.1339 278.53 91.1139 282.73 122.844C288.11 161.374 276.68 201.804 251.98 231.844C226.39 263.354 186.67 283.064 146.02 283.824C118.24 284.734 90.2504 277.154 66.7104 262.354C37.7804 244.464 15.8004 215.664 6.12037 183.054C-7.12963 140.534 1.48037 91.9539 28.5904 56.6139C51.7604 25.1639 88.7404 4.56392 127.54 0.683919ZM101.48 64.7339C93.0104 66.8839 86.2304 74.2039 84.5004 82.7439C82.5304 89.7339 85.4104 96.9639 89.1804 102.814C95.2604 111.394 103.33 118.924 113.14 122.994C117.65 124.234 123.59 124.844 126.83 120.684C132.28 114.134 132.6 105.034 132.5 96.9139C132.43 87.3039 130.37 76.7339 123.06 69.9239C117.4 64.4839 108.95 63.1539 101.48 64.7339ZM168.18 65.1039C163.89 66.6839 159.89 69.3839 157.05 72.9939C154.61 77.0139 152.32 81.3039 151.63 86.0239C150.19 94.5639 149.91 103.444 151.84 111.924C153.11 116.484 155.37 121.414 159.92 123.474C168.62 125.494 176.52 120.144 182.92 114.934C190.76 107.864 198.48 99.0339 199.18 87.9939C198.98 77.7739 192.11 67.4139 181.93 64.8339C177.43 63.8739 172.62 63.7639 168.18 65.1039ZM56.4504 119.604C50.7204 122.304 45.9104 127.514 44.9204 133.924C43.4104 140.984 45.8804 148.864 51.5404 153.424C58.1404 158.724 66.7304 160.874 75.0204 161.624C80.6704 161.894 87.3304 162.024 91.5504 157.614C94.3904 154.924 94.1404 150.614 93.4104 147.114C91.3504 137.794 85.2104 130.034 78.5504 123.484C72.7404 117.974 63.8004 116.764 56.4504 119.604ZM209.67 119.954C201.2 124.854 195.33 133.384 191.2 142.084C189.1 147.294 187.35 154.744 192.66 158.684C198.53 162.804 206.28 161.984 213.01 161.044C221.64 159.134 231.63 156.264 236.05 147.834C241.85 138.004 237.16 123.254 226.12 119.564C220.87 117.594 214.77 117.414 209.67 119.954ZM137.47 135.644C127.15 139.144 117.87 145.384 109.99 152.864C102.9 159.234 95.9904 166.164 91.6604 174.784C87.4304 183.594 85.9604 194.364 90.3104 203.434C95.4704 215.744 110.04 223.164 123.02 220.064C129.38 218.684 134.08 213.904 139.09 210.104C140.25 209.084 142.09 208.644 143.42 209.644C148.02 212.714 151.72 217.204 157.06 219.104C171.02 224.594 188.21 216.084 193.22 202.144C197.4 192.854 195.1 182.064 190.64 173.334C184.15 161.954 174.33 152.844 163.83 145.194C155.97 140.214 147.39 133.404 137.47 135.644Z" fill="#EB7859"/>
</svg>
