<svg width="1920" height="157" viewBox="0 0 1920 157" fill="none" xmlns="http://www.w3.org/2000/svg">
<path d="M0.5 101.5V1H1919V101.5C1919 101.5 1681.5 199 1449.25 101.5C1217 4 1219.5 37.5 979.5 101.5C739.5 165.5 725 183 452.5 101.5C180 20 0.5 101.5 0.5 101.5Z" fill="#AEC6CF" stroke="#AEC6CF"/>
</svg>
